:020000040000FA
:10000000831686011F308500831205080739820791
:10001000102812281428162818281A281C281E28E8
:100020000A30202809302028233020280F302028AB
:100030002030202807302028173020283F30202863
:040040008600052809
:00000001FF
