:020000040000FA
:100000008601831686011F30850083120508073993
:100010008207112813281528172819281B281D289E
:100020001F286130212862302128103021282430F7
:1000300021281030212810302128103021280830A4
:06004000212886000628BD
:00000001FF
