MPASM  5.48                     FIBONACCI.ASM   12-16-2020  15:09:06         PAGE  1


LOC  OBJECT CODE     LINE SOURCE TEXT
  VALUE

                      00001 ;Fibonacci
                      00002 
                      00003         LIST P = 16F84A
                      00004         INCLUDE <P16F84A.INC>
                      00001         LIST
                      00002 
                      00003 ;==========================================================================
                      00004 ;  MPASM PIC16F84A processor include
                      00005 ; 
                      00006 ;  (c) Copyright 1999-2012 Microchip Technology, All rights reserved
                      00007 ;==========================================================================
                      00008 
                      00208         LIST
                      00005 
                      00006         CBLOCK 0x0C
  0000000C            00007         Penultimo
  0000000D            00008         Ultimo
  0000000E            00009         Suma
                      00010         ENDC
                      00011 
0000                  00012         ORG 0
0000                  00013 Inicio
0000   1683           00014         bsf STATUS,RP0
Message[302]: Register in operand not in bank 0.  Ensure that bank bits are correct.
0001   0186           00015         clrf TRISB
0002   1283           00016         bcf STATUS,RP0
0003                  00017 Principal
0003   018C           00018         clrf Penultimo
0004   3001           00019         movlw .1
0005                  00020 Sumando
0005   008D           00021         movwf Ultimo
0006   070C           00022         addwf Penultimo,W
0007   008E           00023         movwf Suma
0008   1803           00024         btfsc STATUS,C
0009   280E           00025         goto Resul
000A   080D           00026         movf Ultimo,W
000B   008C           00027         movwf Penultimo
000C   080E           00028         movf Suma,W
000D   2805           00029         goto Sumando
000E                  00030 Resul
000E   080D           00031         movfw Ultimo
000F   0086           00032         movwf PORTB
0010                  00033 Salida
0010   0063           00034         sleep
                      00035         END
MPASM  5.48                     FIBONACCI.ASM   12-16-2020  15:09:06         PAGE  2


SYMBOL TABLE
  LABEL                             VALUE 

C                                 00000000
DC                                00000001
EEADR                             00000009
EECON1                            00000088
EECON2                            00000089
EEDATA                            00000008
EEIE                              00000006
EEIF                              00000004
F                                 00000001
FSR                               00000004
GIE                               00000007
INDF                              00000000
INTCON                            0000000B
INTE                              00000004
INTEDG                            00000006
INTF                              00000001
IRP                               00000007
Inicio                            00000000
NOT_PD                            00000003
NOT_RBPU                          00000007
NOT_TO                            00000004
OPTION_REG                        00000081
PCL                               00000002
PCLATH                            0000000A
PORTA                             00000005
PORTB                             00000006
PS0                               00000000
PS1                               00000001
PS2                               00000002
PSA                               00000003
Penultimo                         0000000C
Principal                         00000003
RA0                               00000000
RA1                               00000001
RA2                               00000002
RA3                               00000003
RA4                               00000004
RB0                               00000000
RB1                               00000001
RB2                               00000002
RB3                               00000003
RB4                               00000004
RB5                               00000005
RB6                               00000006
RB7                               00000007
RBIE                              00000003
RBIF                              00000000
RD                                00000000
RP0                               00000005
RP1                               00000006
Resul                             0000000E
STATUS                            00000003
Salida                            00000010
MPASM  5.48                     FIBONACCI.ASM   12-16-2020  15:09:06         PAGE  3


SYMBOL TABLE
  LABEL                             VALUE 

Suma                              0000000E
Sumando                           00000005
T0CS                              00000005
T0IE                              00000005
T0IF                              00000002
T0SE                              00000004
TMR0                              00000001
TMR0IE                            00000005
TMR0IF                            00000002
TRISA                             00000085
TRISA0                            00000000
TRISA1                            00000001
TRISA2                            00000002
TRISA3                            00000003
TRISA4                            00000004
TRISB                             00000086
TRISB0                            00000000
TRISB1                            00000001
TRISB2                            00000002
TRISB3                            00000003
TRISB4                            00000004
TRISB5                            00000005
TRISB6                            00000006
TRISB7                            00000007
Ultimo                            0000000D
W                                 00000000
WR                                00000001
WREN                              00000002
WRERR                             00000003
Z                                 00000002
_CONFIG                           00002007
_CP_OFF                           00003FFF
_CP_ON                            0000000F
_DEVID1                           00002006
_FOSC_EXTRC                       00003FFF
_FOSC_HS                          00003FFE
_FOSC_LP                          00003FFC
_FOSC_XT                          00003FFD
_HS_OSC                           00003FFE
_IDLOC0                           00002000
_IDLOC1                           00002001
_IDLOC2                           00002002
_IDLOC3                           00002003
_LP_OSC                           00003FFC
_PWRTE_OFF                        00003FFF
_PWRTE_ON                         00003FF7
_RC_OSC                           00003FFF
_WDTE_OFF                         00003FFB
_WDTE_ON                          00003FFF
_WDT_OFF                          00003FFB
_WDT_ON                           00003FFF
_XT_OSC                           00003FFD
__16F84A                          00000001
MPASM  5.48                     FIBONACCI.ASM   12-16-2020  15:09:06         PAGE  4


MEMORY USAGE MAP ('X' = Used,  '-' = Unused)


0000 : XXXXXXXXXXXXXXXX X--------------- ---------------- ----------------

All other memory blocks unused.

Program Memory Words Used:    17
Program Memory Words Free:  1007


Errors   :     0
Warnings :     0 reported,     0 suppressed
Messages :     1 reported,     0 suppressed

