:020000040000FA
:10000000831686011F30850083120A30050203180B
:100010000F28050810201D200D2886000528803097
:1000200082074F344D3441345234203450344534F7
:10003000523445345A340F39303E8C00203C031979
:1000400000340C08031955340C08031963340C08E8
:100050005A3C031C80342B300C02031C8034820772
:10006000463404344034803400343F3406345B3446
:100070004F3466346D347D3407347F346734413413
:1000800088340034483400340034003477347C340D
:1000900039345E34793471346F34763419341E3423
:1000A0007A343834373454343F347334673450340A
:1000B0006D3478341C343E341D3470346E3449341D
:00000001FF
